<define-tag pagetitle>DLA-833-1 linux</define-tag>
<define-tag report_date>2017-2-22</define-tag>
<define-tag secrefs>CVE-2014-9888 CVE-2014-9895 CVE-2016-6786 CVE-2016-6787 CVE-2016-8405 CVE-2017-5549 CVE-2017-6001 CVE-2017-6074</define-tag>
<define-tag packages>linux</define-tag>
<define-tag isvulnerable>yes</define-tag>
<define-tag fixed>yes</define-tag>
<define-tag fixed-section>no</define-tag>

#use wml::debian::security

