<define-tag pagetitle>DLA-1618-1 libsndfile</define-tag>
<define-tag report_date>2018-12-26</define-tag>
<define-tag secrefs>CVE-2017-8361 CVE-2017-8362 CVE-2017-8363 CVE-2017-8365 CVE-2017-14245 CVE-2017-14246 CVE-2017-14634 CVE-2017-17456 CVE-2017-17457 CVE-2018-13139 CVE-2018-19432 CVE-2018-19661 CVE-2018-19662</define-tag>
<define-tag packages>libsndfile</define-tag>
<define-tag isvulnerable>yes</define-tag>
<define-tag fixed>yes</define-tag>
<define-tag fixed-section>no</define-tag>

#use wml::debian::security

