<define-tag pagetitle>DLA-1524-1 libxml2</define-tag>
<define-tag report_date>2018-9-27</define-tag>
<define-tag secrefs>CVE-2017-18258 CVE-2018-9251 CVE-2018-14404 CVE-2018-14567</define-tag>
<define-tag packages>libxml2</define-tag>
<define-tag isvulnerable>yes</define-tag>
<define-tag fixed>yes</define-tag>
<define-tag fixed-section>no</define-tag>

#use wml::debian::security

