<define-tag pagetitle>DLA-1922-1 wpa</define-tag>
<define-tag report_date>2019-9-16</define-tag>
<define-tag secrefs>CVE-2019-16275 Bug#940080</define-tag>
<define-tag packages>wpa</define-tag>
<define-tag isvulnerable>yes</define-tag>
<define-tag fixed>yes</define-tag>
<define-tag fixed-section>no</define-tag>

#use wml::debian::security

