<define-tag pagetitle>DLA-1664-1 golang</define-tag>
<define-tag report_date>2019-2-6</define-tag>
<define-tag secrefs>CVE-2019-6486 Bug##920548</define-tag>
<define-tag packages>golang</define-tag>
<define-tag isvulnerable>yes</define-tag>
<define-tag fixed>yes</define-tag>
<define-tag fixed-section>no</define-tag>

#use wml::debian::security

